{
  "serial": 5,
  "games": [
    {
      "name": "РИ Warhammer 40000 \"Мстительный Дух\"",
      "isTest": false,
      "url": "https://vs.mg-lpoint.ru/",
      "description": "Абаддон Разоритель, великий вармастер Хаоса достиг той цели, к которой шел десять тысяч лет - Кадия пала.\nВ апокалиптическом сражении на полях Тирока был сломлен хребет армий-защитников Империума человечества, но и могущественный Черный Легион понес чудовищные потери. Бессчётные миллионы солдат Astra Militarum и верных Хаосу бойцов, Ангелы Смерти Императора и Проклятые Предатели, Богомашины Омниссии и зараженные демонами Варпа механизмы Темной Механики... многие встретили здесь свой конец."
    },
    {
      "name": "КРИ Вавилон 5: Точка невозврата",
      "isTest": false,
      "url": "https://b5.mg-lpoint.ru/",
      "description": "Павильонная ролевая игра по мотивам вселенной Вавилон 5. Время действия -  15 октября 2259 года. Место действия - Вавилон 5."
    },
    {
      "name": "ShadowRun: Блиц",
      "isTest": false,
      "url": "https://sr.mg-lpoint.ru/",
      "description": "Игра — это последовательность интересных выборов"
    },
    {
      "name": "Комкон",
      "isTest": false,
      "url": "https://con.mg-lpoint.ru/",
      "description": "Игра для демонстрации на конвенте"
    },
    {
      "name": "Демо",
      "isTest": true,
      "url": "https://demo.mg-lpoint.ru/",
      "description": "Демостенд для эксперементов мастеров"
    },
    {
      "name": "Разработка",
      "isTest": true,
      "url": "https://dev.mg-lpoint.ru/",
      "description": "Стенд для разработки новых версий"
    }
  ]
}