{
  "serial": 1,
  "prefix": "b5",
  "servers": [
    "b5.mg-lpoint.ru"
  ],
  "UseWebSockets": true,
  "assets": {
    "map.jpg": {
      "url": "/assets/client/MapA3.jpg",
      "md5sum": "51244392231997c002af3794f63bb04e"
    },
    "sao.png": {
      "url": "/assets/client/sao.png",
      "md5sum": "794b61cc30f1f12328d6235d8326f3fe"
    },
    "tiao.png": {
      "url": "/assets/client/tiao.png",
      "md5sum": "e476c12fc5ba9c136a3a9261266fc112"
    },
    "B5-Dice-3.png": {
      "url": "/assets/client/B5-Dice-3.png",
      "md5sum": "fc07bf3d9e9f81d3979c63093a0f6c4b"
    },
    "B5-Dice-4.png": {
      "url": "/assets/client/B5-Dice-4.png",
      "md5sum": "1cb58226b69cccf9de77bc07c49c0949"
    },
    "Order_Trader_Awaiting_32.png": {
      "url": "/assets/client/Order_Trader_Awaiting_32.png",
      "md5sum": "d29ea39ffd944a9f6d0664033f8a71dd"
    },
    "Star_Monochrome_32.png": {
      "url": "/assets/client/Star_Monochrome_32.png",
      "md5sum": "7b3f4f664641bf9ae7de910e80cf5eaa"
    },
    "Sprite_LC_32.png": {
      "url": "/assets/client/Sprite_LC_32.png",
      "md5sum": "940deae9381f939c70686d72ed2ad2f1"
    },
    "B5-Dice-2.png": {
      "url": "/assets/client/B5-Dice-2.png",
      "md5sum": "9da7344ec30fc5b0eb1f0dd5a6a6e63a"
    },
    "B5-Dice-5.png": {
      "url": "/assets/client/B5-Dice-5.png",
      "md5sum": "584f9179496d3cb1fdd59c73e779ec54"
    },
    "Colony_Medium_32.png": {
      "url": "/assets/client/Colony_Medium_32.png",
      "md5sum": "118c7a56efc7be3963d92331e48419ad"
    },
    "Sprite_B5_32.png": {
      "url": "/assets/client/Sprite_B5_32.png",
      "md5sum": "9e0ea5c65edd96f8fd2e17f3d3cc2a4a"
    },
    "Sprite_SC_32.png": {
      "url": "/assets/client/Sprite_SC_32.png",
      "md5sum": "ed3b93090327e14499280ef6e2522a5f"
    },
    "Babylon5_32.png": {
      "url": "/assets/client/Babylon5_32.png",
      "md5sum": "559abb32e4febf71419fff68d5b44756"
    },
    "Order_Fleet_Supply_32.png": {
      "url": "/assets/client/Order_Fleet_Supply_32.png",
      "md5sum": "f0996271b32acb3cc848c497956f50dd"
    },
    "B5-Dice-1a.png": {
      "url": "/assets/client/B5-Dice-1a.png",
      "md5sum": "ea73c3f27985d42cd6cd21f3dc6f4aeb"
    },
    "B5-Dice-6.png": {
      "url": "/assets/client/B5-Dice-6.png",
      "md5sum": "a63bb463e65bc05a64321bd782896f6c"
    },
    "Background_Space_1024.png": {
      "url": "/assets/client/Background_Space_1024.png",
      "md5sum": "79087677f1273d7885fde7b0353a8707"
    },
    "Colony_Small_32.png": {
      "url": "/assets/client/Colony_Small_32.png",
      "md5sum": "ac44f242b926060032a54c0a080f7649"
    },
    "Order_Fleet_Follow_32.png": {
      "url": "/assets/client/Order_Fleet_Follow_32.png",
      "md5sum": "6c274119179123624d441d210aa16e84"
    },
    "Sprite_MC_32.png": {
      "url": "/assets/client/Sprite_MC_32.png",
      "md5sum": "96087b15c0574a06d264e71ac7a8b614"
    },
    "Order_Fleet_Projection_32.png": {
      "url": "/assets/client/Order_Fleet_Projection_32.png",
      "md5sum": "71cbdc25f13bdd7a400786fea15642e1"
    },
    "Trader_32.png": {
      "url": "/assets/client/Trader_32.png",
      "md5sum": "61b57a496eba7514eab6fbccb5dc1142"
    },
    "B5-Dice-0.png": {
      "url": "/assets/client/B5-Dice-0.png",
      "md5sum": "76a1f2e772f1f0d9a49f918adc9296da"
    },
    "Order_Fleet_Explore_32.png": {
      "url": "/assets/client/Order_Fleet_Explore_32.png",
      "md5sum": "5209c1d43046b383d3dc583fd0621811"
    },
    "Order_Fleet_Move_32.png": {
      "url": "/assets/client/Order_Fleet_Move_32.png",
      "md5sum": "b0f598fdbde2b6c0928faf12351d4bf5"
    },
    "Scout_32.png": {
      "url": "/assets/client/Scout_32.png",
      "md5sum": "f045613935e6bf193d5ee0d28d9523ec"
    },
    "Order_All_Cooldown_32.png": {
      "url": "/assets/client/Order_All_Cooldown_32.png",
      "md5sum": "bedd655f0a0bf2af498bf2968f954a25"
    },
    "Colony_Large_32.png": {
      "url": "/assets/client/Colony_Large_32.png",
      "md5sum": "13d69b3e14a7b33d7970a7c48e070b4a"
    },
    "B5-Dice-1.png": {
      "url": "/assets/client/B5-Dice-1.png",
      "md5sum": "cbeeca47b8fbaf099c1c47ad2b0f047f"
    },
    "Order_Fleet_Spy_32.png": {
      "url": "/assets/client/Order_Fleet_Spy_32.png",
      "md5sum": "d57d676fbbf4531e61c2e4ae0fb7f5a9"
    }
  },
  "qrAction": {
    "a": {
      "prefix": "Artifact",
      "descriptionSuffix": "desc"
    },
    "t": {
      "prefix": "Trans",
      "descriptionSuffix": "desc",
      "hackSuffix": "hack"
    },
    "l": {
      "prefix": "Lock",
      "descriptionSuffix": "desc",
      "hackSuffix": "hack"
    },
    "p": {
      "actionType": "Player",
      "newContactTransition": "Get-Contact"
    },
    "r": {
      "actionType": "Restaurant"
    },
    "m": {
      "actionType": "MenuItem"
    }
  },
  "inventoryElements": {
    "Default": "Default",
    "Contact": "Contact",
    "Report": "Report"
  },
  "menu": [
    {
      "label": "Персонаж",
      "menu": "/charmenu"
    },
    {
      "label": "Инвентарь",
      "menu": "/inventory"
    },
    {
      "label": "Сообщения",
      "menu": "/chats"
    },
    {
      "label": "Сделки",
      "menu": "/trade"
    },
    {
      "label": "Таможни",
      "menu": "/orders"
    },
    {
      "label": "Карта",
      "menu": "/map"
    },
    {
      "label": "Караваны и флоты",
      "menu": "/map/fleets"
    },
    {
      "label": "Контейнеры",
      "menu": "/containers"
    },
    {
      "label": "Кубик",
      "menu": "/dice"
    }
  ],
  "blescanner": {
    "timeout": 10,
    "enabled": false
  },
  "orders": {
    "Действия по умолчанию": {
      "type": "decision-default",
      "DefaultFeature": "CustomOfficer",
      "DefaultLabel": "Вам пренадлежит система ",
      "DefaultSublabel": "Пропускать ли каравны по умолчанию?"
    },
    "Таможня": {
      "type": "decision",
      "DecisionLabel": "Пропустить караван $name через систему $system из $start в $end с грузом $payload",
      "DecisionFeature": "CustomRequest"
    }
  },
  "char-properties": {
    "qrcode": {
      "type": "qrcode",
      "priority": 1
    },
    "character": {
      "type": "character",
      "priority": 2
    },
    "Пси сила": {
      "type": "integer",
      "priority": 3,
      "actions": [
        {
          "name": "+1",
          "transition": "PP-add1"
        },
        {
          "name": "+5",
          "transition": "PP-add5"
        },
        {
          "name": "-1",
          "transition": "PP-sub1"
        },
        {
          "name": "-5",
          "transition": "PP-sub5"
        }
      ]
    }
  },
  "map": {
    "background": "Background_Space_1024.png",
    "orderFeature": "Order",
    "mapMode": "graph",
    "locationFeatures": [
      "Система"
    ],
    "backgroundRect": [
      0,
      0,
      1024,
      1024
    ],
    "objects": {
      "base": {
        "prio": 0,
        "attributes": {
          "BABYLON 5": "color:224,224,224",
          "EARTH ALLIANCE": "color:16,80,192",
          "MINBARI FEDERATION": "color:80,192,176",
          "CENTAURI REBUBLIC": "color:192,32,224",
          "NARN REGIME": "color:224,0,32",
          "PAK'MA'RA": "color:240,240,32",
          "DRAZI FREEHOLD": "color:224,128,16",
          "ABBAI MATRIARCHATE": "color:160,128,80",
          "BRAKIRI SYNDICRACY": "color:32,192,16",
          "LUMATI": "color:64,32,224",
          "DRAIN NOMAD FLEET": "color:255,160,192",
          "VORLON EMPIRE": "color:192,240,64",
          "GAIM INTELLIGENCE": "color:160,160,160",
          "HURR REPUBLIC": "color:160,160,160",
          "VREE CONGLOMERATE": "color:160,160,160",
          "TAL-KONA'SHA": "color:160,160,160",
          "MARKAR": "color:160,160,160",
          "MINBARI PROTECTORATE": "color:160,160,160",
          "ANTAREANS": "color:32,32,32",
          "BALOSIAN": "color:32,32,32",
          "CASCOR COMMONWEALTH": "color:32,32,32",
          "CH'LONAS": "color:32,32,32",
          "CORILLANI": "color:32,32,32",
          "DENETH": "color:32,32,32",
          "DESCARI": "color:32,32,32",
          "GOLIANS": "color:32,32,32",
          "GROME AUTOCRACY": "color:32,32,32",
          "HYACH GERONTOCRACY": "color:32,32,32",
          "IPSHA BARONIES": "color:32,32,32",
          "KOR-LYAN KINGDOMS": "color:32,32,32",
          "KOULANI": "color:32,32,32",
          "LLORT": "color:32,32,32",
          "MORADI": "color:32,32,32",
          "SH'LASSAN EMPIRE": "color:32,32,32",
          "TIKAR": "color:32,32,32",
          "TOKATI": "color:32,32,32",
          "TORTA REGENCY": "color:32,32,32",
          "TRAKALLAN": "color:32,32,32",
          "YOLU": "color:32,32,32"
        }
      },
      "Система": {
        "prio": 1,
        "attributes": {
          "base": "img:Star_Monochrome_32.png",
          "lcolony": "img:Colony_Large_32.png",
          "mcolony": "img:Colony_Medium_32.png",
          "scolony": "img:Colony_Small_32.png",
          "babylon5": "img:Sprite_B5_32.png",
          "lhomeworld": "img:Sprite_LC_32.png",
          "mhomeworld": "img:Sprite_MC_32.png",
          "shomeworld": "img:Sprite_SC_32.png"
        },
        "actions": {
          "Details": []
        }
      },
      "Караван": {
        "prio": 10,
        "attributes": {
          "base": "img:Trader_32.png",
          "awaiting": "img:Order_Trader_Awaiting_32.png",
          "cooldown": "img:Order_All_Cooldown_32.png"
        },
        "actions": {
          "OrderQueue": [
            "move:Переместиться: max=1",
            "load:Загрузить:Контейнер",
            "unload:Выгрузить:Контейнер",
            "start:Начать из"
          ]
        }
      },
      "Корабль-разведчик": {
        "prio": 20,
        "attributes": {
          "base": "img:Scout_32.png",
          "spy": "img:Order_Fleet_Spy_32.png",
          "explore": "img:Order_Fleet_Explore_32.png",
          "cooldown": "img:Order_All_Cooldown_32.png"
        },
        "actions": {
          "Order": [
            "jump:Переход",
            "spy:Шпионаж",
            "explore:Разведка"
          ]
        }
      }
    }
  },
  "container": {
    "get": "disabled",
    "put": "disabled",
    "move": "constrains:same:location",
    "creationName": "Ящик $random",
    "extra": [
      "location:feature:Система:name",
      "loaded:default:no"
    ]
  },
  "dice": {
    "ProbabilityFeature": "DiceProbability",
    "images": [
      "B5-Dice-0.png",
      "B5-Dice-1a.png",
      "B5-Dice-2.png",
      "B5-Dice-3.png",
      "B5-Dice-4.png",
      "B5-Dice-5.png",
      "B5-Dice-6.png"
    ]
  }
}


